1:
3.6
3.4
3.6
4.4
3.7
3.8
3.5
3.7
3.9
3.6
2.9
3.6
4.0
3.9
3.1
4.0
3.8
4.2
4.0
4.0
3.3
4.6
3.5
10:
3.3
3.2
1000:
3.5
3.3
3.1
4.4
3.7
3.7
3.5
4.0
3.4
3.2
3.5
3.7
3.5
4.2
3.9
3.4
3.3
3.4
3.5
3.8
3.8
3.9
2.9
3.4
4.0
3.4
3.7
10000:
3.9
4.0
10001:
3.6
4.0
3.8
3.0
3.9
3.4
3.5
3.8
3.8
3.0
3.9
4.0
3.1
4.0
3.7
3.8
4.1
10002:
4.2
3.5
4.5
4.0
10003:
2.9
10004:
4.4
3.8
3.9
3.7
4.2
3.9
4.0
3.9
3.9
3.9
3.8
3.6
3.9
3.6
4.7
4.1
4.0
4.0
4.1
4.4
3.9
3.7
3.6
3.8
4.6
3.6
3.8
4.0
3.2
4.1
4.1
10005:
3.7
4.0
3.4
3.4
3.7
10006:
4.0
3.6
4.1
3.3
10007:
3.0
3.5
3.2
3.1
3.0
3.3
3.1
3.5
3.2
3.5
3.1
3.4
3.2
10008:
4.4
3.5
3.6
3.2
4.1
3.9
3.9
10009:
3.8
3.6
4.4
3.1
3.0
3.5
1001:
3.4
3.7
3.9
3.3
4.1
4.0
3.8
3.8
3.1
3.7
3.7
4.0
3.2
3.8
3.6
3.5
4.0
3.8
3.2
3.4
3.4
3.8
3.5
3.1
3.6
3.2
3.7
3.7
4.0
4.0
3.7
4.4
3.3
3.6
3.5
3.6
4.0
3.1
3.6
3.8
3.9
3.3
3.7
4.0
4.0
3.9
3.6
3.3
3.4
4.0
3.4
2.8
3.0
3.7
4.0
4.1
3.7
3.5
3.6
3.4
3.6
3.4
3.3
3.2
4.0
3.4
3.1
3.3
4.0
3.6
3.2
3.5
3.6
3.3
2.8
3.8
3.0
2.9
3.7
3.6
4.1
3.9
3.0
3.2
3.6
3.4
3.5
4.1
3.5
3.3
4.0
3.6
3.5
3.8
3.4
3.1
3.4
4.4
3.5
3.9
3.6
3.8
3.3
3.3
3.4
3.6
3.7
3.9
3.7
3.1
3.3
3.5
3.6
3.3
3.6
2.9
3.3
4.1
3.8
3.3
3.5
3.6
3.7
3.6
3.4
3.5
3.3
3.7
3.7
3.5
3.6
3.8
3.7
3.5
10010:
3.1
3.0
3.0
3.6
3.3
3.0
3.2
3.1
2.8
3.3
3.0
2.9
3.1
2.8
3.5
3.0
2.9
3.4
2.4
3.1
2.9
2.8
3.1
10011:
4.0
3.8
10012:
3.4
4.1
3.4
3.4
3.8
3.9
3.0
3.0
3.4
3.6
3.9
3.4
3.5
10013:
3.7
3.4
3.5
3.7
3.5
3.6
3.3
3.7
3.5
3.8
3.1
4.1
3.7
3.6
3.3
3.5
3.1
3.4
3.5
3.1
3.3
3.2
3.4
3.9
3.8
3.4
3.5
3.0
3.3
3.6
3.2
3.4
3.3
3.8
3.4
3.3
3.5
4.0
4.0
3.1
4.1
3.5
3.8
3.9
3.4
3.1
3.5
3.6
3.4
3.7
3.3
3.4
3.7
3.8
3.4
3.0
3.9
10014:
3.2
3.9
3.1
4.0
3.5
10015:
3.7
3.3
3.1
3.5
3.8
3.5
3.9
3.7
3.8
3.6
3.8
3.6
3.4
3.9
3.9
3.5
3.6
3.9
3.5
3.9
4.6
3.9
4.2
3.7
3.3
3.4
4.1
3.6
10016:
2.6
2.7
3.0
3.1
3.9
10017:
3.1
3.7
3.5
10018:
4.2
4.0
3.1
3.2
3.5
3.7
3.6
3.3
2.8
3.9
3.4
3.8
3.2
3.7
3.2
3.8
3.6
3.6
3.5
3.6
4.2
3.2
3.9
4.0
3.5
3.9
3.8
3.8
3.9
3.9
10019:
3.6
2.5
3.8
3.3
4.2
4.1
3.6
3.0
3.8
3.7
4.3
3.2
3.3
3.4
3.8
3.7
3.9
3.7
3.5
4.2
3.8
3.8
3.8
3.7
3.9
3.7
3.3
3.5
3.6
3.8
3.8
3.1
3.8
4.0
3.5
4.0
2.9
3.9
3.9
4.0
4.0
4.1
4.0
3.9
4.1
3.2
3.8
4.1
3.6
3.6
3.4
3.5
3.9
3.5
1.8
2.9
3.1
3.4
4.2
3.5
3.3
3.5
4.4
3.5
4.0
4.5
3.5
4.4
3.7
1002:
3.6
3.1
3.5
3.6
3.1
3.7
4.1
2.9
3.6
3.7
4.1
3.6
3.5
3.3
10020:
3.9
3.9
3.7
4.0
3.8
3.6
3.7
4.0
3.9
3.8
3.8
4.5
3.9
3.6
3.8
3.8
4.0
3.5
4.0
3.6
4.1
3.4
3.7
3.7
3.4
2.8
4.0
10021:
3.1
3.3
3.4
3.2
10022:
2.8
3.5
3.2
3.2
3.6
3.5
2.9
2.9
10023:
3.8
3.8
3.8
3.6
4.4
3.6
3.5
3.8
3.5
3.9
4.2
10024:
3.7
3.9
3.6
3.8
3.7
3.7
3.3
3.4
3.8
3.8
10025:
3.3
10027:
4.2
3.9
3.7
3.7
3.2
3.7
3.4
4.4
3.3
4.2
3.7
3.8
3.9
3.5
3.8
4.3
3.6
3.9
4.0
3.9
3.4
3.7
3.7
3.9
4.0
3.9
4.1
4.2
4.6
4.2
4.2
4.0
3.4
3.7
4.1
4.0
4.4
3.9
3.9
3.6
4.1
4.2
4.6
3.7
3.6
4.2
3.9
3.8
4.0
4.1
3.8
4.0
3.6
3.6
3.5
3.8
3.5
3.6
4.1
4.0
3.7
3.4
4.2
3.4
4.2
4.6
3.5
4.0
3.4
4.0
4.0
4.0
4.2
4.0
4.2
3.8
4.0
3.7
3.1
3.6
4.4
4.4
3.5
3.8
3.9
4.1
3.7
3.9
10028:
3.3
3.5
3.3
4.0
4.3
3.3
4.2
10029:
3.4
4.0
4.0
3.2
10031:
3.5
3.2
3.8
2.9
3.9
3.3
3.1
2.8
3.1
10032:
3.3
4.4
4.0
4.1
4.0
3.1
3.6
3.5
3.8
2.9
3.3
4.1
4.4
3.5
4.0
3.1
3.7
3.5
3.5
3.7
3.4
3.6
3.4
3.5
3.8
3.3
3.2
3.6
4.2
3.4
3.6
3.8
4.0
3.7
3.0
3.9
3.7
3.4
3.5
3.6
3.6
3.7
3.6
3.2
3.5
3.6
3.9
10033:
3.8
3.4
3.0
3.7
3.5
3.1
3.7
3.3
3.7
3.3
3.8
3.5
4.4
3.9
10034:
2.5
3.8
10035:
2.9
4.3
4.2
4.1
4.1
4.1
3.9
3.6
3.5
3.6
3.8
3.7
3.8
3.9
3.7
3.7
3.9
4.0
4.0
4.6
10036:
3.9
3.4
3.6
3.4
3.8
3.8
3.2
3.7
3.1
3.2
3.3
3.6
3.9
3.8
4.3
3.9
3.6
3.9
2.9
3.2
3.7
3.4
4.5
3.8
3.6
4.0
3.8
3.9
3.9
3.2
3.6
3.3
3.2
3.4
3.1
3.5
3.7
3.7
3.5
3.9
3.5
3.6
4.0
3.8
3.8
4.0
4.3
4.6
3.3
3.9
3.4
3.8
3.6
3.2
3.6
3.7
3.6
4.5
3.6
3.9
3.7
4.1
3.4
4.2
3.2
4.2
3.7
3.6
3.8
3.9
4.3
3.9
3.8
3.4
3.8
4.0
4.0
3.4
4.0
3.9
3.7
3.7
4.2
3.9
3.1
3.7
3.5
3.8
3.8
3.4
2.9
4.0
3.6
4.0
3.6
3.4
3.4
3.8
3.5
4.0
4.0
3.1
3.5
4.2
3.6
3.1
4.4
3.3
3.7
3.8
3.7
3.4
3.5
3.6
3.5
3.7
4.3
3.5
3.6
3.8
3.7
3.7
3.9
3.7
3.8
3.4
3.8
4.2
3.6
3.4
4.1
3.3
3.4
4.6
3.6
3.4
3.9
3.7
4.0
3.2
4.2
4.0
3.7
3.6
3.3
4.3
3.4
3.8
3.5
3.5
4.1
3.8
3.9
3.6
3.6
3.5
4.4
3.8
3.6
4.1
3.9
3.6
3.8
3.9
3.7
3.7
3.9
4.1
4.0
3.5
3.5
3.5
4.0
3.6
3.8
3.8
3.6
3.9
3.8
4.1
3.7
4.1
3.4
3.8
4.3
3.6
3.7
3.4
3.9
3.7
3.6
3.4
3.8
4.3
3.9
3.2
3.7
4.0
3.3
3.7
3.7
3.7
3.5
3.9
3.2
4.5
3.7
4.2
3.9
3.6
3.6
3.5
4.1
3.6
3.5
10037:
4.0
3.3
3.5
3.9
3.7
3.8
3.4
3.1
3.5
3.8
3.6
3.5
3.5
3.5
10038:
4.2
3.5
3.4
3.5
3.4
3.7
3.7
3.3
10039:
2.6
1004:
2.9
2.7
3.4
3.2
3.4
3.3
3.0
3.8
2.8
3.4
3.5
3.6
3.6
3.7
3.1
2.8
3.3
3.4
3.2
3.3
3.4
3.7
3.7
2.4
3.0
2.8
3.3
3.3
3.1
3.3
3.0
10040:
3.5
3.3
3.8
10041:
4.1
3.3
3.5
3.2
3.4
3.4
3.9
3.4
2.0
3.2
1.7
3.6
3.9
2.9
3.5
3.6
3.4
3.1
3.3
3.0
3.3
3.5
3.3
3.4
3.6
2.9
3.5
3.0
3.5
3.0
3.6
10042:
4.1
3.6
4.0
3.7
4.0
4.7
4.4
3.9
4.4
3.8
4.1
3.8
4.2
4.0
4.0
4.2
3.5
4.5
4.4
4.1
4.8
4.3
3.4
4.0
4.1
4.4
4.3
3.3
4.2
4.1
4.2
4.2
4.0
4.3
4.2
4.5
4.0
4.5
3.9
3.6
4.1
3.9
3.9
3.8
4.5
4.3
4.0
3.7
4.0
3.7
3.8
4.3
4.4
2.8
4.6
4.3
3.5
4.1
3.6
3.9
4.0
4.1
4.1
4.0
3.4
3.6
3.9
4.7
4.1
3.8
3.8
4.1
4.0
3.8
3.5
4.4
4.3
4.0
4.0
4.2
3.7
4.4
4.1
4.0
4.3
3.8
4.4
4.2
3.6
4.4
3.8
4.1
4.8
3.9
4.0
3.9
3.8
4.0
4.0
3.8
4.2
4.3
3.6
4.5
4.2
3.9
4.0
4.0
4.5
4.1
4.4
4.0
4.1
4.2
3.9
4.0
4.0
3.7
4.1
4.4
3.7
4.4
3.9
4.5
4.2
4.7
3.6
3.8
4.1
3.7
3.8
4.1
4.0
2.8
3.9
4.0
4.5
4.7
3.7
4.8
3.9
4.5
4.0
3.6
4.1
3.9
4.1
3.5
3.8
4.2
3.8
4.1
4.6
4.0
4.2
3.6
3.9
3.5
3.6
4.2
3.6
4.3
4.0
4.1
3.7
4.3
3.9
3.8
3.9
4.0
4.3
4.3
3.7
4.0
4.3
3.8
4.2
4.4
4.6
3.9
4.0
4.8
4.7
3.8
4.1
4.4
3.8
3.5
3.9
4.3
3.8
4.0
4.2
3.7
4.3
4.5
4.3
4.0
4.0
4.0
4.2
4.3
4.1
4.2
4.1
3.1
4.2
4.1
4.1
3.9
3.8
3.9
4.4
4.4
4.4
4.3
4.7
4.2
4.0
4.2
4.0
4.2
4.4
4.3
4.1
0.93
